^C:\USERS\MAGSHIMIM\DOCUMENTS\MAGSHIMIM\YEAR B\C++\ASSIGNMENT12\ASSIGNMENT12\EX1\MAIN.CPP
/c /ZI /nologo /W3 /WX- /diagnostics:classic /sdl /Od /Oy- /D _MBCS /Gm /EHsc /RTC1 /MDd /GS /fp:precise /Zc:wchar_t /Zc:forScope /Zc:inline /Fo"DEBUG\\" /Fd"DEBUG\VC141.PDB" /Gd /TP /analyze- C:\USERS\MAGSHIMIM\DOCUMENTS\MAGSHIMIM\YEAR B\C++\ASSIGNMENT12\ASSIGNMENT12\EX1\MAIN.CPP
^C:\USERS\MAGSHIMIM\DOCUMENTS\MAGSHIMIM\YEAR B\C++\ASSIGNMENT12\ASSIGNMENT12\EX1\THREADS.CPP
/c /ZI /nologo /W3 /WX- /diagnostics:classic /sdl /Od /Oy- /D _MBCS /Gm /EHsc /RTC1 /MDd /GS /fp:precise /Zc:wchar_t /Zc:forScope /Zc:inline /Fo"DEBUG\\" /Fd"DEBUG\VC141.PDB" /Gd /TP /analyze- C:\USERS\MAGSHIMIM\DOCUMENTS\MAGSHIMIM\YEAR B\C++\ASSIGNMENT12\ASSIGNMENT12\EX1\THREADS.CPP
