^C:\USERS\MAGSHIMIM\DOCUMENTS\MAGSHIMIM\YEAR B\C++\ASSIGNMENT12\ASSIGNMENT12\EX2\DEBUG\MESSAGESSENDER.OBJ|C:\USERS\MAGSHIMIM\DOCUMENTS\MAGSHIMIM\YEAR B\C++\ASSIGNMENT12\ASSIGNMENT12\EX2\DEBUG\SOURCE.OBJ
C:\USERS\MAGSHIMIM\DOCUMENTS\MAGSHIMIM\YEAR B\C++\ASSIGNMENT12\ASSIGNMENT12\DEBUG\EX2.ILK
C:\USERS\MAGSHIMIM\DOCUMENTS\MAGSHIMIM\YEAR B\C++\ASSIGNMENT12\ASSIGNMENT12\DEBUG\EX2.EXE
C:\USERS\MAGSHIMIM\DOCUMENTS\MAGSHIMIM\YEAR B\C++\ASSIGNMENT12\ASSIGNMENT12\DEBUG\EX2.PDB
